projeto01/quartus/simulation/qsim/proj1.msim.vcd
$comment
	File created using the following command:
		vcd file proj1.msim.vcd -direction
$end
$date
	Wed Nov 15 18:36:01 2023
$end
$version
	ModelSim Version 10.5b
$end
$timescale
	1ps
$end

$scope module testentrada_vhd_vec_tst $end
$var wire 1 ! A [6] $end
$var wire 1 " A [5] $end
$var wire 1 # A [4] $end
$var wire 1 $ A [3] $end
$var wire 1 % A [2] $end
$var wire 1 & A [1] $end
$var wire 1 ' A [0] $end
$var wire 1 ( B [6] $end
$var wire 1 ) B [5] $end
$var wire 1 * B [4] $end
$var wire 1 + B [3] $end
$var wire 1 , B [2] $end
$var wire 1 - B [1] $end
$var wire 1 . B [0] $end
$var wire 1 / clk $end
$var wire 1 0 col [2] $end
$var wire 1 1 col [1] $end
$var wire 1 2 col [0] $end
$var wire 1 3 Enable $end
$var wire 1 4 Q1 [3] $end
$var wire 1 5 Q1 [2] $end
$var wire 1 6 Q1 [1] $end
$var wire 1 7 Q1 [0] $end
$var wire 1 8 Q2 [3] $end
$var wire 1 9 Q2 [2] $end
$var wire 1 : Q2 [1] $end
$var wire 1 ; Q2 [0] $end
$var wire 1 < Q3 [3] $end
$var wire 1 = Q3 [2] $end
$var wire 1 > Q3 [1] $end
$var wire 1 ? Q3 [0] $end
$var wire 1 @ Q4 [3] $end
$var wire 1 A Q4 [2] $end
$var wire 1 B Q4 [1] $end
$var wire 1 C Q4 [0] $end
$var wire 1 D Q5 [3] $end
$var wire 1 E Q5 [2] $end
$var wire 1 F Q5 [1] $end
$var wire 1 G Q5 [0] $end
$var wire 1 H Q6 [3] $end
$var wire 1 I Q6 [2] $end
$var wire 1 J Q6 [1] $end
$var wire 1 K Q6 [0] $end
$var wire 1 L row [3] $end
$var wire 1 M row [2] $end
$var wire 1 N row [1] $end
$var wire 1 O row [0] $end
$var wire 1 P strobe $end

$scope module i1 $end
$var wire 1 Q gnd $end
$var wire 1 R vcc $end
$var wire 1 S unknown $end
$var wire 1 T devoe $end
$var wire 1 U devclrn $end
$var wire 1 V devpor $end
$var wire 1 W ww_devoe $end
$var wire 1 X ww_devclrn $end
$var wire 1 Y ww_devpor $end
$var wire 1 Z ww_A [6] $end
$var wire 1 [ ww_A [5] $end
$var wire 1 \ ww_A [4] $end
$var wire 1 ] ww_A [3] $end
$var wire 1 ^ ww_A [2] $end
$var wire 1 _ ww_A [1] $end
$var wire 1 ` ww_A [0] $end
$var wire 1 a ww_clk $end
$var wire 1 b ww_Enable $end
$var wire 1 c ww_strobe $end
$var wire 1 d ww_col [2] $end
$var wire 1 e ww_col [1] $end
$var wire 1 f ww_col [0] $end
$var wire 1 g ww_B [6] $end
$var wire 1 h ww_B [5] $end
$var wire 1 i ww_B [4] $end
$var wire 1 j ww_B [3] $end
$var wire 1 k ww_B [2] $end
$var wire 1 l ww_B [1] $end
$var wire 1 m ww_B [0] $end
$var wire 1 n ww_Q1 [3] $end
$var wire 1 o ww_Q1 [2] $end
$var wire 1 p ww_Q1 [1] $end
$var wire 1 q ww_Q1 [0] $end
$var wire 1 r ww_Q2 [3] $end
$var wire 1 s ww_Q2 [2] $end
$var wire 1 t ww_Q2 [1] $end
$var wire 1 u ww_Q2 [0] $end
$var wire 1 v ww_Q3 [3] $end
$var wire 1 w ww_Q3 [2] $end
$var wire 1 x ww_Q3 [1] $end
$var wire 1 y ww_Q3 [0] $end
$var wire 1 z ww_Q4 [3] $end
$var wire 1 { ww_Q4 [2] $end
$var wire 1 | ww_Q4 [1] $end
$var wire 1 } ww_Q4 [0] $end
$var wire 1 ~ ww_Q5 [3] $end
$var wire 1 !! ww_Q5 [2] $end
$var wire 1 "! ww_Q5 [1] $end
$var wire 1 #! ww_Q5 [0] $end
$var wire 1 $! ww_Q6 [3] $end
$var wire 1 %! ww_Q6 [2] $end
$var wire 1 &! ww_Q6 [1] $end
$var wire 1 '! ww_Q6 [0] $end
$var wire 1 (! ww_row [3] $end
$var wire 1 )! ww_row [2] $end
$var wire 1 *! ww_row [1] $end
$var wire 1 +! ww_row [0] $end
$var wire 1 ,! \inst|cd|tmp~clkctrl_INCLK_bus\ [3] $end
$var wire 1 -! \inst|cd|tmp~clkctrl_INCLK_bus\ [2] $end
$var wire 1 .! \inst|cd|tmp~clkctrl_INCLK_bus\ [1] $end
$var wire 1 /! \inst|cd|tmp~clkctrl_INCLK_bus\ [0] $end
$var wire 1 0! \clk~inputclkctrl_INCLK_bus\ [3] $end
$var wire 1 1! \clk~inputclkctrl_INCLK_bus\ [2] $end
$var wire 1 2! \clk~inputclkctrl_INCLK_bus\ [1] $end
$var wire 1 3! \clk~inputclkctrl_INCLK_bus\ [0] $end
$var wire 1 4! \Enable~input_o\ $end
$var wire 1 5! \strobe~input_o\ $end
$var wire 1 6! \A[0]~output_o\ $end
$var wire 1 7! \B[0]~output_o\ $end
$var wire 1 8! \Q1[3]~output_o\ $end
$var wire 1 9! \Q1[2]~output_o\ $end
$var wire 1 :! \Q1[1]~output_o\ $end
$var wire 1 ;! \Q1[0]~output_o\ $end
$var wire 1 <! \Q2[3]~output_o\ $end
$var wire 1 =! \Q2[2]~output_o\ $end
$var wire 1 >! \Q2[1]~output_o\ $end
$var wire 1 ?! \Q2[0]~output_o\ $end
$var wire 1 @! \Q3[3]~output_o\ $end
$var wire 1 A! \Q3[2]~output_o\ $end
$var wire 1 B! \Q3[1]~output_o\ $end
$var wire 1 C! \Q3[0]~output_o\ $end
$var wire 1 D! \Q4[3]~output_o\ $end
$var wire 1 E! \Q4[2]~output_o\ $end
$var wire 1 F! \Q4[1]~output_o\ $end
$var wire 1 G! \Q4[0]~output_o\ $end
$var wire 1 H! \Q5[3]~output_o\ $end
$var wire 1 I! \Q5[2]~output_o\ $end
$var wire 1 J! \Q5[1]~output_o\ $end
$var wire 1 K! \Q5[0]~output_o\ $end
$var wire 1 L! \Q6[3]~output_o\ $end
$var wire 1 M! \Q6[2]~output_o\ $end
$var wire 1 N! \Q6[1]~output_o\ $end
$var wire 1 O! \Q6[0]~output_o\ $end
$var wire 1 P! \A[6]~output_o\ $end
$var wire 1 Q! \A[5]~output_o\ $end
$var wire 1 R! \A[4]~output_o\ $end
$var wire 1 S! \A[3]~output_o\ $end
$var wire 1 T! \A[2]~output_o\ $end
$var wire 1 U! \A[1]~output_o\ $end
$var wire 1 V! \B[6]~output_o\ $end
$var wire 1 W! \B[5]~output_o\ $end
$var wire 1 X! \B[4]~output_o\ $end
$var wire 1 Y! \B[3]~output_o\ $end
$var wire 1 Z! \B[2]~output_o\ $end
$var wire 1 [! \B[1]~output_o\ $end
$var wire 1 \! \row[3]~output_o\ $end
$var wire 1 ]! \row[2]~output_o\ $end
$var wire 1 ^! \row[1]~output_o\ $end
$var wire 1 _! \row[0]~output_o\ $end
$var wire 1 `! \clk~input_o\ $end
$var wire 1 a! \clk~inputclkctrl_outclk\ $end
$var wire 1 b! \inst|cd|Add0~15\ $end
$var wire 1 c! \inst|cd|Add0~16_combout\ $end
$var wire 1 d! \inst|cd|Add0~17\ $end
$var wire 1 e! \inst|cd|Add0~18_combout\ $end
$var wire 1 f! \inst|cd|Add0~19\ $end
$var wire 1 g! \inst|cd|Add0~20_combout\ $end
$var wire 1 h! \inst|cd|Add0~21\ $end
$var wire 1 i! \inst|cd|Add0~22_combout\ $end
$var wire 1 j! \inst|cd|Add0~23\ $end
$var wire 1 k! \inst|cd|Add0~24_combout\ $end
$var wire 1 l! \inst|cd|Add0~25\ $end
$var wire 1 m! \inst|cd|Add0~26_combout\ $end
$var wire 1 n! \inst|cd|Add0~27\ $end
$var wire 1 o! \inst|cd|Add0~28_combout\ $end
$var wire 1 p! \inst|cd|Add0~29\ $end
$var wire 1 q! \inst|cd|Add0~30_combout\ $end
$var wire 1 r! \inst|cd|Add0~31\ $end
$var wire 1 s! \inst|cd|Add0~32_combout\ $end
$var wire 1 t! \inst|cd|Add0~33\ $end
$var wire 1 u! \inst|cd|Add0~34_combout\ $end
$var wire 1 v! \inst|cd|Add0~35\ $end
$var wire 1 w! \inst|cd|Add0~36_combout\ $end
$var wire 1 x! \inst|cd|Add0~37\ $end
$var wire 1 y! \inst|cd|Add0~38_combout\ $end
$var wire 1 z! \inst|cd|Add0~39\ $end
$var wire 1 {! \inst|cd|Add0~40_combout\ $end
$var wire 1 |! \inst|cd|Add0~41\ $end
$var wire 1 }! \inst|cd|Add0~42_combout\ $end
$var wire 1 ~! \inst|cd|Add0~43\ $end
$var wire 1 !" \inst|cd|Add0~44_combout\ $end
$var wire 1 "" \inst|cd|Add0~45\ $end
$var wire 1 #" \inst|cd|Add0~46_combout\ $end
$var wire 1 $" \inst|cd|Equal0~6_combout\ $end
$var wire 1 %" \inst|cd|Add0~47\ $end
$var wire 1 &" \inst|cd|Add0~48_combout\ $end
$var wire 1 '" \inst|cd|Add0~49\ $end
$var wire 1 (" \inst|cd|Add0~50_combout\ $end
$var wire 1 )" \inst|cd|Add0~51\ $end
$var wire 1 *" \inst|cd|Add0~52_combout\ $end
$var wire 1 +" \inst|cd|Add0~53\ $end
$var wire 1 ," \inst|cd|Add0~54_combout\ $end
$var wire 1 -" \inst|cd|Add0~55\ $end
$var wire 1 ." \inst|cd|Add0~56_combout\ $end
$var wire 1 /" \inst|cd|Add0~57\ $end
$var wire 1 0" \inst|cd|Add0~58_combout\ $end
$var wire 1 1" \inst|cd|Add0~59\ $end
$var wire 1 2" \inst|cd|Add0~60_combout\ $end
$var wire 1 3" \inst|cd|Add0~61\ $end
$var wire 1 4" \inst|cd|Add0~62_combout\ $end
$var wire 1 5" \inst|cd|Equal0~8_combout\ $end
$var wire 1 6" \inst|cd|Equal0~7_combout\ $end
$var wire 1 7" \inst|cd|Equal0~5_combout\ $end
$var wire 1 8" \inst|cd|Equal0~9_combout\ $end
$var wire 1 9" \inst|cd|Add0~0_combout\ $end
$var wire 1 :" \inst|cd|count[0]~1_combout\ $end
$var wire 1 ;" \inst|cd|Add0~1\ $end
$var wire 1 <" \inst|cd|Add0~2_combout\ $end
$var wire 1 =" \inst|cd|count~0_combout\ $end
$var wire 1 >" \inst|cd|Add0~3\ $end
$var wire 1 ?" \inst|cd|Add0~4_combout\ $end
$var wire 1 @" \inst|cd|Add0~5\ $end
$var wire 1 A" \inst|cd|Add0~6_combout\ $end
$var wire 1 B" \inst|cd|Add0~7\ $end
$var wire 1 C" \inst|cd|Add0~8_combout\ $end
$var wire 1 D" \inst|cd|Add0~9\ $end
$var wire 1 E" \inst|cd|Add0~10_combout\ $end
$var wire 1 F" \inst|cd|Add0~11\ $end
$var wire 1 G" \inst|cd|Add0~12_combout\ $end
$var wire 1 H" \inst|cd|Add0~13\ $end
$var wire 1 I" \inst|cd|Add0~14_combout\ $end
$var wire 1 J" \inst|cd|Equal0~1_combout\ $end
$var wire 1 K" \inst|cd|Equal0~3_combout\ $end
$var wire 1 L" \inst|cd|Equal0~2_combout\ $end
$var wire 1 M" \inst|cd|Equal0~0_combout\ $end
$var wire 1 N" \inst|cd|Equal0~4_combout\ $end
$var wire 1 O" \inst|cd|tmp~0_combout\ $end
$var wire 1 P" \inst|cd|tmp~feeder_combout\ $end
$var wire 1 Q" \inst|cd|tmp~q\ $end
$var wire 1 R" \inst|cd|tmp~clkctrl_outclk\ $end
$var wire 1 S" \inst|ke|RC|Mux1~0_combout\ $end
$var wire 1 T" \col[0]~input_o\ $end
$var wire 1 U" \col[1]~input_o\ $end
$var wire 1 V" \col[2]~input_o\ $end
$var wire 1 W" \inst|ke|Freeze~0_combout\ $end
$var wire 1 X" \inst|ke|RC|Mux2~0_combout\ $end
$var wire 1 Y" \inst|ke|RC|Mux3~0_combout\ $end
$var wire 1 Z" \inst|ke|RC|Mux0~0_combout\ $end
$var wire 1 [" \inst|ke|RC|ring\ [3] $end
$var wire 1 \" \inst|ke|RC|ring\ [2] $end
$var wire 1 ]" \inst|ke|RC|ring\ [1] $end
$var wire 1 ^" \inst|ke|RC|ring\ [0] $end
$var wire 1 _" \inst|cd|count\ [31] $end
$var wire 1 `" \inst|cd|count\ [30] $end
$var wire 1 a" \inst|cd|count\ [29] $end
$var wire 1 b" \inst|cd|count\ [28] $end
$var wire 1 c" \inst|cd|count\ [27] $end
$var wire 1 d" \inst|cd|count\ [26] $end
$var wire 1 e" \inst|cd|count\ [25] $end
$var wire 1 f" \inst|cd|count\ [24] $end
$var wire 1 g" \inst|cd|count\ [23] $end
$var wire 1 h" \inst|cd|count\ [22] $end
$var wire 1 i" \inst|cd|count\ [21] $end
$var wire 1 j" \inst|cd|count\ [20] $end
$var wire 1 k" \inst|cd|count\ [19] $end
$var wire 1 l" \inst|cd|count\ [18] $end
$var wire 1 m" \inst|cd|count\ [17] $end
$var wire 1 n" \inst|cd|count\ [16] $end
$var wire 1 o" \inst|cd|count\ [15] $end
$var wire 1 p" \inst|cd|count\ [14] $end
$var wire 1 q" \inst|cd|count\ [13] $end
$var wire 1 r" \inst|cd|count\ [12] $end
$var wire 1 s" \inst|cd|count\ [11] $end
$var wire 1 t" \inst|cd|count\ [10] $end
$var wire 1 u" \inst|cd|count\ [9] $end
$var wire 1 v" \inst|cd|count\ [8] $end
$var wire 1 w" \inst|cd|count\ [7] $end
$var wire 1 x" \inst|cd|count\ [6] $end
$var wire 1 y" \inst|cd|count\ [5] $end
$var wire 1 z" \inst|cd|count\ [4] $end
$var wire 1 {" \inst|cd|count\ [3] $end
$var wire 1 |" \inst|cd|count\ [2] $end
$var wire 1 }" \inst|cd|count\ [1] $end
$var wire 1 ~" \inst|cd|count\ [0] $end
$upscope $end
$upscope $end
$enddefinitions $end
#0
$dumpvars
0/
03
0P
0Q
1R
xS
1T
1U
1V
1W
1X
1Y
0a
0b
0c
04!
05!
z6!
z7!
z8!
z9!
z:!
z;!
z<!
z=!
z>!
z?!
z@!
zA!
zB!
zC!
zD!
zE!
zF!
zG!
zH!
zI!
zJ!
zK!
zL!
zM!
zN!
zO!
0P!
0Q!
0R!
1S!
0T!
0U!
0V!
0W!
0X!
1Y!
0Z!
0[!
0\!
0]!
0^!
0_!
0`!
0a!
1b!
0c!
0d!
0e!
1f!
0g!
0h!
0i!
1j!
0k!
0l!
0m!
1n!
0o!
0p!
0q!
1r!
0s!
0t!
0u!
1v!
0w!
0x!
0y!
1z!
0{!
0|!
0}!
1~!
0!"
0""
0#"
1$"
1%"
0&"
0'"
0("
1)"
0*"
0+"
0,"
1-"
0."
0/"
00"
11"
02"
03"
04"
15"
16"
17"
18"
09"
1:"
1;"
1<"
1="
1>"
0?"
0@"
0A"
1B"
0C"
0D"
0E"
1F"
0G"
0H"
0I"
1J"
1K"
1L"
0M"
0N"
0O"
0P"
0Q"
0R"
1S"
1T"
1U"
1V"
1W"
1X"
0Y"
1Z"
10
11
12
0Z
0[
0\
1]
0^
0_
z`
1d
1e
1f
0g
0h
0i
1j
0k
0l
zm
zn
zo
zp
zq
zr
zs
zt
zu
zv
zw
zx
zy
zz
z{
z|
z}
z~
z!!
z"!
z#!
z$!
z%!
z&!
z'!
0(!
0)!
0*!
0+!
0["
0\"
0]"
0^"
0_"
0`"
0a"
0b"
0c"
0d"
0e"
0f"
0g"
0h"
0i"
0j"
0k"
0l"
0m"
0n"
0o"
0p"
0q"
0r"
0s"
0t"
0u"
0v"
0w"
0x"
0y"
0z"
0{"
0|"
0}"
0~"
10!
11!
12!
03!
1,!
1-!
1.!
0/!
0!
0"
0#
1$
0%
0&
z'
0(
0)
0*
1+
0,
0-
z.
z4
z5
z6
z7
z8
z9
z:
z;
z<
z=
z>
z?
z@
zA
zB
zC
zD
zE
zF
zG
zH
zI
zJ
zK
0L
0M
0N
0O
$end
#1000
1/
1a
1`!
13!
1a!
1~"
1}"
0<"
0>"
19"
0;"
1M"
1N"
1<"
1>"
0:"
1?"
0="
0?"
1O"
1P"
#2000
0/
0a
0`!
03!
0a!
#3000
1/
1a
1`!
13!
1a!
0~"
0}"
1Q"
1/!
0O"
0<"
09"
1;"
0M"
0N"
1<"
1:"
0P"
1R"
1="
1O"
1\"
1]"
1["
1P"
0X"
1Y"
1\!
1^!
1]!
1(!
1*!
1)!
1N
1M
1L
#4000
0/
0a
0`!
03!
0a!
#5000
1/
1a
1`!
13!
1a!
1~"
1}"
0<"
0>"
19"
0;"
1M"
1N"
1<"
1>"
0:"
1?"
0="
0?"
0O"
0P"
#6000
0/
0a
0`!
03!
0a!
#7000
1/
1a
1`!
13!
1a!
0~"
0}"
0Q"
0/!
1O"
0<"
09"
1;"
0M"
0N"
1<"
1:"
1P"
0R"
1="
0O"
0P"
#8000
0/
0a
0`!
03!
0a!
#9000
1/
1a
1`!
13!
1a!
1~"
1}"
0<"
0>"
19"
0;"
1M"
1N"
1<"
1>"
0:"
1?"
0="
0?"
1O"
1P"
#10000
0/
13
0a
1b
14!
0`!
03!
0a!
#11000
1/
1a
1`!
13!
1a!
0~"
0}"
1Q"
1/!
0O"
0<"
09"
1;"
0M"
0N"
1<"
1:"
0P"
1R"
1="
1O"
0]"
1^"
1P"
0S"
1X"
1_!
0^!
1+!
0*!
1O
0N
#12000
0/
0a
0`!
03!
0a!
#13000
1/
1a
1`!
13!
1a!
1~"
1}"
0<"
0>"
19"
0;"
1M"
1N"
1<"
1>"
0:"
1?"
0="
0?"
0O"
0P"
#14000
0/
0a
0`!
03!
0a!
#15000
1/
1a
1`!
13!
1a!
0~"
0}"
0Q"
0/!
1O"
0<"
09"
1;"
0M"
0N"
1<"
1:"
1P"
0R"
1="
0O"
0P"
#16000
0/
0a
0`!
03!
0a!
#17000
1/
1a
1`!
13!
1a!
1~"
1}"
0<"
0>"
19"
0;"
1M"
1N"
1<"
1>"
0:"
1?"
0="
0?"
1O"
1P"
#18000
0/
0a
0`!
03!
0a!
#19000
1/
1a
1`!
13!
1a!
0~"
0}"
1Q"
1/!
0O"
0<"
09"
1;"
0M"
0N"
1<"
1:"
0P"
1R"
1="
1O"
0\"
1]"
1P"
1S"
0Z"
1^!
0]!
1*!
0)!
1N
0M
#20000
0/
0a
0`!
03!
0a!
#21000
1/
1a
1`!
13!
1a!
1~"
1}"
0<"
0>"
19"
0;"
1M"
1N"
1<"
1>"
0:"
1?"
0="
0?"
0O"
0P"
#22000
0/
0a
0`!
03!
0a!
#23000
1/
1a
1`!
13!
1a!
0~"
0}"
0Q"
0/!
1O"
0<"
09"
1;"
0M"
0N"
1<"
1:"
1P"
0R"
1="
0O"
0P"
#24000
0/
0a
0`!
03!
0a!
#25000
1/
1a
1`!
13!
1a!
1~"
1}"
0<"
0>"
19"
0;"
1M"
1N"
1<"
1>"
0:"
1?"
0="
0?"
1O"
1P"
#26000
0/
0a
0`!
03!
0a!
#27000
1/
1a
1`!
13!
1a!
0~"
0}"
1Q"
1/!
0O"
0<"
09"
1;"
0M"
0N"
1<"
1:"
0P"
1R"
1="
1O"
1\"
0["
1P"
0Y"
1Z"
0\!
1]!
0(!
1)!
1M
0L
#28000
0/
0a
0`!
03!
0a!
#29000
1/
1a
1`!
13!
1a!
1~"
1}"
0<"
0>"
19"
0;"
1M"
1N"
1<"
1>"
0:"
1?"
0="
0?"
0O"
0P"
#30000
0/
0a
0`!
03!
0a!
#31000
1/
1a
1`!
13!
1a!
0~"
0}"
0Q"
0/!
1O"
0<"
09"
1;"
0M"
0N"
1<"
1:"
1P"
0R"
1="
0O"
0P"
#32000
0/
0a
0`!
03!
0a!
#33000
1/
1a
1`!
13!
1a!
1~"
1}"
0<"
0>"
19"
0;"
1M"
1N"
1<"
1>"
0:"
1?"
0="
0?"
1O"
1P"
#34000
0/
0a
0`!
03!
0a!
#35000
1/
1a
1`!
13!
1a!
0~"
0}"
1Q"
1/!
0O"
0<"
09"
1;"
0M"
0N"
1<"
1:"
0P"
1R"
1="
1O"
0^"
1["
1P"
0X"
1Y"
1\!
0_!
1(!
0+!
0O
1L
#36000
0/
0a
0`!
03!
0a!
#37000
1/
1a
1`!
13!
1a!
1~"
1}"
0<"
0>"
19"
0;"
1M"
1N"
1<"
1>"
0:"
1?"
0="
0?"
0O"
0P"
#38000
0/
0a
0`!
03!
0a!
#39000
1/
1a
1`!
13!
1a!
0~"
0}"
0Q"
0/!
1O"
0<"
09"
1;"
0M"
0N"
1<"
1:"
1P"
0R"
1="
0O"
0P"
#40000
0/
0a
0`!
03!
0a!
#41000
1/
1a
1`!
13!
1a!
1~"
1}"
0<"
0>"
19"
0;"
1M"
1N"
1<"
1>"
0:"
1?"
0="
0?"
1O"
1P"
#42000
0/
0a
0`!
03!
0a!
#43000
1/
1a
1`!
13!
1a!
0~"
0}"
1Q"
1/!
0O"
0<"
09"
1;"
0M"
0N"
1<"
1:"
0P"
1R"
1="
1O"
0]"
1^"
1P"
0S"
1X"
1_!
0^!
1+!
0*!
1O
0N
#44000
0/
0a
0`!
03!
0a!
#45000
1/
1a
1`!
13!
1a!
1~"
1}"
0<"
0>"
19"
0;"
1M"
1N"
1<"
1>"
0:"
1?"
0="
0?"
0O"
0P"
#46000
0/
0a
0`!
03!
0a!
#47000
1/
1a
1`!
13!
1a!
0~"
0}"
0Q"
0/!
1O"
0<"
09"
1;"
0M"
0N"
1<"
1:"
1P"
0R"
1="
0O"
0P"
#48000
0/
0a
0`!
03!
0a!
#49000
1/
1a
1`!
13!
1a!
1~"
1}"
0<"
0>"
19"
0;"
1M"
1N"
1<"
1>"
0:"
1?"
0="
0?"
1O"
1P"
#50000
0/
0a
0`!
03!
0a!
#51000
1/
1a
1`!
13!
1a!
0~"
0}"
1Q"
1/!
0O"
0<"
09"
1;"
0M"
0N"
1<"
1:"
0P"
1R"
1="
1O"
0\"
1]"
1P"
1S"
0Z"
1^!
0]!
1*!
0)!
1N
0M
#52000
0/
0a
0`!
03!
0a!
#53000
1/
1a
1`!
13!
1a!
1~"
1}"
0<"
0>"
19"
0;"
1M"
1N"
1<"
1>"
0:"
1?"
0="
0?"
0O"
0P"
#54000
0/
0a
0`!
03!
0a!
#55000
1/
1a
1`!
13!
1a!
0~"
0}"
0Q"
0/!
1O"
0<"
09"
1;"
0M"
0N"
1<"
1:"
1P"
0R"
1="
0O"
0P"
#56000
0/
0a
0`!
03!
0a!
#57000
1/
1a
1`!
13!
1a!
1~"
1}"
0<"
0>"
19"
0;"
1M"
1N"
1<"
1>"
0:"
1?"
0="
0?"
1O"
1P"
#58000
0/
0a
0`!
03!
0a!
#59000
1/
1a
1`!
13!
1a!
0~"
0}"
1Q"
1/!
0O"
0<"
09"
1;"
0M"
0N"
1<"
1:"
0P"
1R"
1="
1O"
1\"
0["
1P"
0Y"
1Z"
0\!
1]!
0(!
1)!
1M
0L
#60000
0/
0a
0`!
03!
0a!
#61000
1/
1a
1`!
13!
1a!
1~"
1}"
0<"
0>"
19"
0;"
1M"
1N"
1<"
1>"
0:"
1?"
0="
0?"
0O"
0P"
#62000
0/
0a
0`!
03!
0a!
#63000
1/
1a
1`!
13!
1a!
0~"
0}"
0Q"
0/!
1O"
0<"
09"
1;"
0M"
0N"
1<"
1:"
1P"
0R"
1="
0O"
0P"
#64000
0/
0a
0`!
03!
0a!
#65000
1/
1a
1`!
13!
1a!
1~"
1}"
0<"
0>"
19"
0;"
1M"
1N"
1<"
1>"
0:"
1?"
0="
0?"
1O"
1P"
#66000
0/
0a
0`!
03!
0a!
#67000
1/
1a
1`!
13!
1a!
0~"
0}"
1Q"
1/!
0O"
0<"
09"
1;"
0M"
0N"
1<"
1:"
0P"
1R"
1="
1O"
0^"
1["
1P"
0X"
1Y"
1\!
0_!
1(!
0+!
0O
1L
#68000
0/
0a
0`!
03!
0a!
#69000
1/
1a
1`!
13!
1a!
1~"
1}"
0<"
0>"
19"
0;"
1M"
1N"
1<"
1>"
0:"
1?"
0="
0?"
0O"
0P"
#70000
0/
01
0a
0e
0U"
0`!
03!
0W"
0a!
#71000
1/
1a
1`!
13!
1a!
0~"
0}"
0Q"
0/!
1O"
0<"
09"
1;"
0M"
0N"
1<"
1:"
1P"
0R"
1="
0O"
0P"
#72000
0/
0a
0`!
03!
0a!
#73000
1/
1a
1`!
13!
1a!
1~"
1}"
0<"
0>"
19"
0;"
1M"
1N"
1<"
1>"
0:"
1?"
0="
0?"
1O"
1P"
#74000
0/
0a
0`!
03!
0a!
#75000
1/
1a
1`!
13!
1a!
0~"
0}"
1Q"
1/!
0O"
0<"
09"
1;"
0M"
0N"
1<"
1:"
0P"
1R"
1="
1O"
1P"
#76000
0/
0a
0`!
03!
0a!
#77000
1/
1a
1`!
13!
1a!
1~"
1}"
0<"
0>"
19"
0;"
1M"
1N"
1<"
1>"
0:"
1?"
0="
0?"
0O"
0P"
#78000
0/
0a
0`!
03!
0a!
#79000
1/
1a
1`!
13!
1a!
0~"
0}"
0Q"
0/!
1O"
0<"
09"
1;"
0M"
0N"
1<"
1:"
1P"
0R"
1="
0O"
0P"
#80000
0/
0a
0`!
03!
0a!
#81000
1/
1a
1`!
13!
1a!
1~"
1}"
0<"
0>"
19"
0;"
1M"
1N"
1<"
1>"
0:"
1?"
0="
0?"
1O"
1P"
#82000
0/
0a
0`!
03!
0a!
#83000
1/
1a
1`!
13!
1a!
0~"
0}"
1Q"
1/!
0O"
0<"
09"
1;"
0M"
0N"
1<"
1:"
0P"
1R"
1="
1O"
1P"
#84000
0/
0a
0`!
03!
0a!
#85000
1/
1a
1`!
13!
1a!
1~"
1}"
0<"
0>"
19"
0;"
1M"
1N"
1<"
1>"
0:"
1?"
0="
0?"
0O"
0P"
#86000
0/
0a
0`!
03!
0a!
#87000
1/
1a
1`!
13!
1a!
0~"
0}"
0Q"
0/!
1O"
0<"
09"
1;"
0M"
0N"
1<"
1:"
1P"
0R"
1="
0O"
0P"
#88000
0/
0a
0`!
03!
0a!
#89000
1/
1a
1`!
13!
1a!
1~"
1}"
0<"
0>"
19"
0;"
1M"
1N"
1<"
1>"
0:"
1?"
0="
0?"
1O"
1P"
#90000
0/
0a
0`!
03!
0a!
#91000
1/
1a
1`!
13!
1a!
0~"
0}"
1Q"
1/!
0O"
0<"
09"
1;"
0M"
0N"
1<"
1:"
0P"
1R"
1="
1O"
1P"
#92000
0/
0a
0`!
03!
0a!
#93000
1/
1a
1`!
13!
1a!
1~"
1}"
0<"
0>"
19"
0;"
1M"
1N"
1<"
1>"
0:"
1?"
0="
0?"
0O"
0P"
#94000
0/
0a
0`!
03!
0a!
#95000
1/
1a
1`!
13!
1a!
0~"
0}"
0Q"
0/!
1O"
0<"
09"
1;"
0M"
0N"
1<"
1:"
1P"
0R"
1="
0O"
0P"
#96000
0/
0a
0`!
03!
0a!
#97000
1/
1a
1`!
13!
1a!
1~"
1}"
0<"
0>"
19"
0;"
1M"
1N"
1<"
1>"
0:"
1?"
0="
0?"
1O"
1P"
#98000
0/
0a
0`!
03!
0a!
#99000
1/
1a
1`!
13!
1a!
0~"
0}"
1Q"
1/!
0O"
0<"
09"
1;"
0M"
0N"
1<"
1:"
0P"
1R"
1="
1O"
1P"
#100000
0/
11
0a
1e
1U"
0`!
03!
1W"
0a!
#101000
1/
1a
1`!
13!
1a!
1~"
1}"
0<"
0>"
19"
0;"
1M"
1N"
1<"
1>"
0:"
1?"
0="
0?"
0O"
0P"
#102000
0/
0a
0`!
03!
0a!
#103000
1/
1a
1`!
13!
1a!
0~"
0}"
0Q"
0/!
1O"
0<"
09"
1;"
0M"
0N"
1<"
1:"
1P"
0R"
1="
0O"
0P"
#104000
0/
0a
0`!
03!
0a!
#105000
1/
1a
1`!
13!
1a!
1~"
1}"
0<"
0>"
19"
0;"
1M"
1N"
1<"
1>"
0:"
1?"
0="
0?"
1O"
1P"
#106000
0/
0a
0`!
03!
0a!
#107000
1/
1a
1`!
13!
1a!
0~"
0}"
1Q"
1/!
0O"
0<"
09"
1;"
0M"
0N"
1<"
1:"
0P"
1R"
1="
1O"
0]"
1^"
1P"
0S"
1X"
1_!
0^!
1+!
0*!
1O
0N
#108000
0/
0a
0`!
03!
0a!
#109000
1/
1a
1`!
13!
1a!
1~"
1}"
0<"
0>"
19"
0;"
1M"
1N"
1<"
1>"
0:"
1?"
0="
0?"
0O"
0P"
#110000
0/
0a
0`!
03!
0a!
#111000
1/
1a
1`!
13!
1a!
0~"
0}"
0Q"
0/!
1O"
0<"
09"
1;"
0M"
0N"
1<"
1:"
1P"
0R"
1="
0O"
0P"
#112000
0/
0a
0`!
03!
0a!
#113000
1/
1a
1`!
13!
1a!
1~"
1}"
0<"
0>"
19"
0;"
1M"
1N"
1<"
1>"
0:"
1?"
0="
0?"
1O"
1P"
#114000
0/
0a
0`!
03!
0a!
#115000
1/
1a
1`!
13!
1a!
0~"
0}"
1Q"
1/!
0O"
0<"
09"
1;"
0M"
0N"
1<"
1:"
0P"
1R"
1="
1O"
0\"
1]"
1P"
1S"
0Z"
1^!
0]!
1*!
0)!
1N
0M
#116000
0/
0a
0`!
03!
0a!
#117000
1/
1a
1`!
13!
1a!
1~"
1}"
0<"
0>"
19"
0;"
1M"
1N"
1<"
1>"
0:"
1?"
0="
0?"
0O"
0P"
#118000
0/
0a
0`!
03!
0a!
#119000
1/
1a
1`!
13!
1a!
0~"
0}"
0Q"
0/!
1O"
0<"
09"
1;"
0M"
0N"
1<"
1:"
1P"
0R"
1="
0O"
0P"
#120000
0/
0a
0`!
03!
0a!
#121000
1/
1a
1`!
13!
1a!
1~"
1}"
0<"
0>"
19"
0;"
1M"
1N"
1<"
1>"
0:"
1?"
0="
0?"
1O"
1P"
#122000
0/
0a
0`!
03!
0a!
#123000
1/
1a
1`!
13!
1a!
0~"
0}"
1Q"
1/!
0O"
0<"
09"
1;"
0M"
0N"
1<"
1:"
0P"
1R"
1="
1O"
1\"
0["
1P"
0Y"
1Z"
0\!
1]!
0(!
1)!
1M
0L
